<svg width="30" height="29" viewBox="0 0 30 29" fill="none" xmlns="http://www.w3.org/2000/svg">
<rect x="14" width="2" height="29" fill="white"/>
<rect y="16" width="2" height="30" transform="rotate(-90 0 16)" fill="white"/>
</svg>
