<svg width="8" height="8" viewBox="0 0 8 8" fill="none" xmlns="http://www.w3.org/2000/svg">
<path d="M4.05564 1V7.1053" stroke="#C4C4C4" stroke-linecap="round" stroke-linejoin="round"/>
<path d="M7.11111 4.05273H1" stroke="#C4C4C4" stroke-linecap="round" stroke-linejoin="round"/>
</svg>
