<svg width="17" height="17" viewBox="0 0 17 17" fill="none" xmlns="http://www.w3.org/2000/svg">
<g clip-path="url(#clip0)">
<path d="M14.4892 2.27475C12.8865 0.807832 10.7595 0 8.5 0C6.24053 0 4.11354 0.807832 2.51082 2.27475C0.891836 3.7566 0 5.73152 0 7.83594C0 9.47717 0.536562 11.0317 1.55623 12.3572L0.0484766 16.0869C-0.00108105 16.2094 -0.0129609 16.3439 0.0143571 16.4732C0.041675 16.6025 0.106948 16.7207 0.201825 16.8127C0.296702 16.9047 0.416867 16.9663 0.546944 16.9896C0.677022 17.0129 0.811096 16.9969 0.932012 16.9436L5.20393 15.0606C6.39343 15.5182 7.66526 15.7227 8.93825 15.6612C10.2112 15.5997 11.4574 15.2734 12.5973 14.7033C12.6764 14.6647 12.7471 14.6107 12.8052 14.5445C12.8632 14.4782 12.9076 14.4011 12.9355 14.3176C12.9635 14.2341 12.9746 14.1458 12.9682 14.058C12.9617 13.9701 12.9379 13.8845 12.898 13.8059C12.8581 13.7274 12.803 13.6576 12.7358 13.6005C12.6687 13.5435 12.5909 13.5004 12.507 13.4737C12.423 13.4471 12.3346 13.4374 12.2469 13.4452C12.1592 13.453 12.0739 13.4782 11.996 13.5193C10.9852 14.0236 9.87733 14.3033 8.74833 14.3395C7.61933 14.3756 6.49587 14.1671 5.45494 13.7285C5.3713 13.6928 5.28123 13.6747 5.1903 13.6753C5.09937 13.6759 5.00953 13.6951 4.92635 13.7318L1.89258 15.0686L2.93416 12.4923C2.97967 12.3798 2.99345 12.2569 2.97401 12.1371C2.95458 12.0173 2.90267 11.9051 2.82393 11.8127C1.84543 10.6648 1.32812 9.28957 1.32812 7.83594C1.32812 4.24768 4.54551 1.32812 8.5 1.32812C12.4545 1.32812 15.6719 4.24768 15.6719 7.83594C15.6719 9.07143 15.2884 10.274 14.5632 11.3126C14.5116 11.384 14.4748 11.465 14.4548 11.5508C14.4348 11.6366 14.4321 11.7255 14.4468 11.8124C14.4615 11.8992 14.4934 11.9823 14.5405 12.0567C14.5876 12.1312 14.6491 12.1955 14.7213 12.2459C14.7935 12.2964 14.8751 12.3319 14.9612 12.3505C15.0473 12.3692 15.1362 12.3705 15.2228 12.3544C15.3095 12.3383 15.392 12.3051 15.4657 12.2568C15.5393 12.2085 15.6027 12.146 15.652 12.073C16.5352 10.8103 17 9.34502 17 7.83594C17 5.73152 16.1085 3.7566 14.4892 2.27475ZM12.1191 6.20898H4.08398C3.90803 6.20846 3.73942 6.13833 3.615 6.0139C3.49058 5.88948 3.42045 5.72088 3.41992 5.54492C3.42045 5.36896 3.49058 5.20036 3.615 5.07594C3.73942 4.95152 3.90803 4.88138 4.08398 4.88086H12.1191C12.2951 4.88138 12.4637 4.95152 12.5881 5.07594C12.7125 5.20036 12.7827 5.36896 12.7832 5.54492C12.7827 5.72088 12.7125 5.88948 12.5881 6.0139C12.4637 6.13833 12.2951 6.20846 12.1191 6.20898ZM11.297 8.69922H4.90609C4.73013 8.69869 4.56153 8.62856 4.43711 8.50414C4.31269 8.37972 4.24256 8.21111 4.24203 8.03516C4.24256 7.8592 4.31269 7.6906 4.43711 7.56617C4.56153 7.44175 4.73013 7.37162 4.90609 7.37109H11.297C11.473 7.37162 11.6416 7.44175 11.766 7.56617C11.8904 7.6906 11.9606 7.8592 11.9611 8.03516C11.9606 8.21111 11.8904 8.37972 11.766 8.50414C11.6416 8.62856 11.473 8.69869 11.297 8.69922ZM12.1191 11.3223H4.08398C3.90803 11.3217 3.73942 11.2516 3.615 11.1272C3.49058 11.0028 3.42045 10.8342 3.41992 10.6582C3.42045 10.4822 3.49058 10.3136 3.615 10.1892C3.73942 10.0648 3.90803 9.99467 4.08398 9.99414H12.1191C12.2951 9.99467 12.4637 10.0648 12.5881 10.1892C12.7125 10.3136 12.7827 10.4822 12.7832 10.6582C12.7827 10.8342 12.7125 11.0028 12.5881 11.1272C12.4637 11.2516 12.2951 11.3217 12.1191 11.3223Z" fill="#20569D"/>
</g>
<defs>
<clipPath id="clip0">
<rect width="17" height="17" fill="white"/>
</clipPath>
</defs>
</svg>
