<svg width="23" height="23" viewBox="0 0 23 23" fill="#F2B30C" xmlns="http://www.w3.org/2000/svg">
<g clip-path="url(#clip0)">
<path d="M22.776 10.8171L21.7703 9.45765L22.1797 7.817C22.2387 7.57827 22.2196 7.32692 22.1254 7.09978C22.0312 6.87265 21.8666 6.68167 21.6559 6.55484L20.2069 5.68353L19.9566 4.01199C19.92 3.76856 19.8063 3.54327 19.6323 3.36921C19.4582 3.19514 19.2329 3.08149 18.9895 3.0449L17.318 2.79309L16.4467 1.34555C16.3197 1.13456 16.1285 0.969842 15.901 0.875579C15.6736 0.781316 15.4219 0.762475 15.183 0.821833L13.5438 1.22968L12.1844 0.225516C11.9865 0.0791326 11.7469 0.00012207 11.5008 0.00012207C11.2547 0.00012207 11.015 0.0791326 10.8172 0.225516L9.45767 1.22968L7.81859 0.821833C7.57963 0.762475 7.32792 0.781316 7.10046 0.875579C6.87301 0.969842 6.68177 1.13456 6.55486 1.34555L5.68357 2.79309L4.01201 3.0449C3.77059 3.08235 3.54735 3.19564 3.3746 3.3684C3.20185 3.54115 3.08855 3.76438 3.0511 4.0058L2.80082 5.67734L1.35175 6.54865C1.14089 6.6753 0.976221 6.86626 0.881952 7.09345C0.787684 7.32064 0.768807 7.57209 0.828056 7.81082L1.23743 9.45147L0.23172 10.811C0.0857996 11.009 0.00708008 11.2485 0.00708008 11.4945C0.00708008 11.7406 0.0857996 11.9801 0.23172 12.1782L1.23743 13.5376L0.828056 15.1783C0.768807 15.417 0.787684 15.6685 0.881952 15.8957C0.976221 16.1228 1.14089 16.3138 1.35175 16.4404L2.80082 17.3118L3.0511 18.991C3.08722 19.2346 3.20075 19.4602 3.3749 19.6343C3.54905 19.8085 3.77458 19.922 4.01819 19.9581L5.68975 20.2084L6.56104 21.6575C6.68752 21.8685 6.87846 22.0333 7.10571 22.1276C7.33295 22.2219 7.58446 22.2407 7.82319 22.1812L9.46386 21.7718L10.8233 22.7775C11.0216 22.923 11.2611 23.0014 11.507 23.0014C11.7528 23.0014 11.9923 22.923 12.1905 22.7775L13.55 21.7718L15.1907 22.1796C15.2811 22.2028 15.3739 22.2148 15.4672 22.2152C15.6656 22.2149 15.8606 22.1634 16.0332 22.0657C16.2059 21.968 16.3504 21.8274 16.4528 21.6575L17.3241 20.2084L18.9957 19.9581C19.2392 19.9218 19.4646 19.8082 19.6387 19.6341C19.8128 19.46 19.9264 19.2345 19.9628 18.991L20.2131 17.3195L21.6621 16.4482C21.8731 16.3213 22.0379 16.13 22.1321 15.9026C22.2264 15.6751 22.2452 15.4234 22.1859 15.1845L21.7764 13.5454L22.7822 12.1859C22.9275 11.987 23.0054 11.7468 23.0043 11.5005C23.0032 11.2542 22.9232 11.0147 22.776 10.8171ZM20.5236 13.2889L21.0627 15.4517L19.1502 16.6027L18.8196 18.8087L16.612 19.1409L15.461 21.0534L13.2982 20.5143L11.5031 21.8413L9.70796 20.5143L7.54514 21.0534L6.39418 19.1409L4.1866 18.8103L3.85598 16.6027L1.94345 15.4517L2.4826 13.2889L1.15555 11.4938L2.4826 9.69864L1.94345 7.53582L3.85598 6.38491L4.1866 4.17728L6.39418 3.84668L7.54359 1.93413L9.70641 2.47329L11.5031 1.14625L13.2967 2.47174L15.4595 1.93413L16.6104 3.84668L18.818 4.17728L19.1486 6.38491L21.0612 7.53428L20.522 9.69709L21.8491 11.4922L20.5236 13.2889Z" fill="#F2B30C"/>
<path d="M11.9526 14.6808V15.4656H11.2744V14.6808C10.2517 14.5835 9.46536 14.0351 9.13013 13.2086L10.2594 12.62C10.3477 12.8356 10.488 13.0261 10.6678 13.1744C10.8476 13.3226 11.0613 13.4241 11.2898 13.4697V11.9727C10.6117 11.7688 10.1374 11.5309 9.86703 11.2451C9.70968 11.0944 9.58541 10.9126 9.50216 10.7112C9.41891 10.5099 9.37849 10.2934 9.38347 10.0756C9.37888 9.83684 9.42465 9.5998 9.51782 9.37993C9.61098 9.16006 9.74945 8.9623 9.92417 8.79953C10.2918 8.44736 10.7676 8.22962 11.2744 8.18158V7.34735H11.9526V8.18158C12.3568 8.21601 12.7439 8.35988 13.0724 8.59777C13.4009 8.83566 13.6584 9.15857 13.8172 9.5318L12.7358 10.1297C12.6717 9.9549 12.5672 9.79776 12.4308 9.67105C12.2944 9.54433 12.1301 9.45163 11.9511 9.40049V10.8403C13.3013 11.2574 13.9393 11.7811 13.9393 12.7389C13.9331 13.7895 13.2039 14.5588 11.9526 14.6808ZM11.2898 10.6317V9.36341C10.9052 9.43757 10.6935 9.67238 10.6935 9.99371C10.6935 10.2641 10.8897 10.4757 11.2898 10.6317ZM11.9449 13.4789C12.345 13.3878 12.6153 13.1514 12.6153 12.8316C12.6153 12.5458 12.4439 12.3821 11.9449 12.1859V13.4789Z" fill="#F2B30C"/>
<path d="M16.8006 6.19796C15.8063 5.20453 14.5528 4.5106 13.1831 4.19533C11.8134 3.88005 10.3827 3.95614 9.05419 4.41491C7.72567 4.87369 6.55286 5.69666 5.66959 6.78994C4.78631 7.88322 4.22816 9.20279 4.05879 10.598C3.88942 11.9933 4.11566 13.4081 4.7117 14.6809C5.30775 15.9538 6.24957 17.0335 7.42974 17.7968C8.60991 18.5601 9.9809 18.9763 11.3862 18.9979C12.7916 19.0195 14.1747 18.6456 15.3777 17.9189C15.4436 17.879 15.5009 17.8266 15.5465 17.7646C15.5921 17.7025 15.6249 17.6321 15.6433 17.5574C15.6617 17.4827 15.6651 17.405 15.6535 17.329C15.6418 17.2529 15.6154 17.1798 15.5755 17.114C15.5356 17.0482 15.4832 16.9908 15.4212 16.9453C15.3591 16.8997 15.2887 16.8668 15.214 16.8484C15.1392 16.8301 15.0616 16.8266 14.9856 16.8383C14.9095 16.8499 14.8365 16.8764 14.7706 16.9163C13.4287 17.736 11.8314 18.0314 10.2851 17.7457C8.73882 17.4599 7.35249 16.6133 6.39216 15.3681C5.43183 14.123 4.96513 12.567 5.08163 10.9989C5.19812 9.43074 5.88961 7.96085 7.02338 6.87126C8.15716 5.78167 9.65336 5.14914 11.2249 5.09504C12.7964 5.04094 14.3326 5.56907 15.5386 6.57811C16.7446 7.58715 17.5356 9.00602 17.7596 10.5624C17.9837 12.1189 17.6251 13.7032 16.7527 15.0114C16.6662 15.1405 16.6346 15.2986 16.6647 15.451C16.6948 15.6034 16.7843 15.7376 16.9133 15.824C17.0424 15.9105 17.2005 15.9421 17.3529 15.912C17.5053 15.8819 17.6395 15.7924 17.7259 15.6634C18.6926 14.2228 19.1286 12.4911 18.9595 10.7645C18.7904 9.0379 18.0267 7.42368 16.799 6.19796H16.8006Z" fill="#F2B30C"/>
</g>
<defs>
<clipPath id="clip0">
<rect width="23" height="23" fill="#F2B30C"/>
</clipPath>
</defs>
</svg>
