<svg width="14" height="12" viewBox="0 0 14 12" fill="none" xmlns="http://www.w3.org/2000/svg">
<path d="M0 4.35535V5.59989C3.16195 5.59989 5.72731 8.10822 5.72731 11.1999H7.00015C7.00015 7.41989 3.86594 4.35535 0 4.35535Z" fill="white"/>
<path d="M0 6.84436V8.0889C0.843806 8.08921 1.65296 8.4171 2.24962 9.0005C2.84628 9.58389 3.18162 10.3751 3.18194 11.2001H4.45448C4.45432 10.045 3.98497 8.93722 3.14963 8.1204C2.3143 7.30358 1.18138 6.84459 0 6.84436H0Z" fill="white"/>
<path d="M0 9.33337V11.2H1.9091C1.9091 10.705 1.70797 10.2302 1.34994 9.88011C0.991914 9.53004 0.506326 9.33337 0 9.33337H0Z" fill="white"/>
<path d="M12.7275 1.368e-07H1.27284C1.10569 -7.65065e-05 0.940162 0.0320525 0.785719 0.0945511C0.631275 0.15705 0.490941 0.248693 0.372736 0.364243C0.25453 0.479794 0.160771 0.616987 0.0968149 0.767982C0.0328591 0.918978 -3.9174e-05 1.08082 3.50064e-08 1.24425V3.11091H1.27284V1.24425H12.7275V9.95544H8.27269V11.2H12.7275C12.8946 11.2 13.0601 11.1678 13.2145 11.1052C13.3689 11.0427 13.5092 10.951 13.6274 10.8354C13.7456 10.7199 13.8393 10.5827 13.9032 10.4317C13.9672 10.2807 14 10.1189 14 9.95544V1.24425C14 1.08084 13.9672 0.919026 13.9032 0.76805C13.8393 0.617073 13.7455 0.479893 13.6274 0.364347C13.5092 0.2488 13.3689 0.157151 13.2145 0.0946349C13.0601 0.0321191 12.8946 -3.81814e-05 12.7275 1.368e-07Z" fill="white"/>
</svg>
