<svg width="17" height="16" viewBox="0 0 17 16" fill="none" xmlns="http://www.w3.org/2000/svg">
<g clip-path="url(#clip0)">
<path d="M3.26074 7.67383H2.96431C2.80708 7.67383 2.65628 7.73774 2.5451 7.85151C2.43392 7.96527 2.37146 8.11957 2.37146 8.28046C2.37146 8.44135 2.43392 8.59565 2.5451 8.70942C2.65628 8.82319 2.80708 8.8871 2.96431 8.8871H3.26074C3.41797 8.8871 3.56876 8.82319 3.67995 8.70942C3.79113 8.59565 3.85359 8.44135 3.85359 8.28046C3.85359 8.11957 3.79113 7.96527 3.67995 7.85151C3.56876 7.73774 3.41797 7.67383 3.26074 7.67383Z" fill="white"/>
<path d="M9.10025 5.24756H5.33565C5.17842 5.24756 5.02762 5.31147 4.91644 5.42524C4.80526 5.539 4.7428 5.6933 4.7428 5.85419C4.7428 6.01508 4.80526 6.16938 4.91644 6.28314C5.02762 6.39691 5.17842 6.46082 5.33565 6.46082H9.10025C9.25749 6.46082 9.40828 6.39691 9.51946 6.28314C9.63064 6.16938 9.6931 6.01508 9.6931 5.85419C9.6931 5.6933 9.63064 5.539 9.51946 5.42524C9.40828 5.31147 9.25749 5.24756 9.10025 5.24756V5.24756Z" fill="white"/>
<path d="M8.14844 14.3166H2.3714C2.05694 14.3166 1.75535 14.1888 1.53299 13.9612C1.31062 13.7337 1.1857 13.4251 1.1857 13.1033V2.42654C1.1857 2.10476 1.31062 1.79616 1.53299 1.56863C1.75535 1.3411 2.05694 1.21327 2.3714 1.21327H9.66021C9.97468 1.21327 10.2763 1.3411 10.4986 1.56863C10.721 1.79616 10.8459 2.10476 10.8459 2.42654V5.85403C10.8459 6.01492 10.9084 6.16922 11.0196 6.28298C11.1307 6.39675 11.2815 6.46066 11.4388 6.46066C11.596 6.46066 11.7468 6.39675 11.858 6.28298C11.9692 6.16922 12.0316 6.01492 12.0316 5.85403V2.42654C12.0309 1.7832 11.7808 1.16642 11.3363 0.711515C10.8917 0.256607 10.2889 0.000722535 9.66021 0L2.3714 0C1.74269 0.000722535 1.13992 0.256607 0.695348 0.711515C0.250776 1.16642 0.000706118 1.7832 0 2.42654V13.1033C0.000706118 13.7467 0.250776 14.3634 0.695348 14.8183C1.13992 15.2733 1.74269 15.5291 2.3714 15.5299H8.14844C8.30567 15.5299 8.45647 15.4659 8.56765 15.3522C8.67883 15.2384 8.74129 15.0841 8.74129 14.9232C8.74129 14.7623 8.67883 14.608 8.56765 14.4943C8.45647 14.3805 8.30567 14.3166 8.14844 14.3166Z" fill="white"/>
<path d="M3.26074 10.1006H2.96431C2.80708 10.1006 2.65628 10.1645 2.5451 10.2783C2.43392 10.392 2.37146 10.5463 2.37146 10.7072C2.37146 10.8681 2.43392 11.0224 2.5451 11.1362C2.65628 11.2499 2.80708 11.3138 2.96431 11.3138H3.26074C3.41797 11.3138 3.56876 11.2499 3.67995 11.1362C3.79113 11.0224 3.85359 10.8681 3.85359 10.7072C3.85359 10.5463 3.79113 10.392 3.67995 10.2783C3.56876 10.1645 3.41797 10.1006 3.26074 10.1006V10.1006Z" fill="white"/>
<path d="M9.10025 2.8208H5.33565C5.17842 2.8208 5.02762 2.88471 4.91644 2.99848C4.80526 3.11225 4.7428 3.26655 4.7428 3.42744C4.7428 3.58833 4.80526 3.74263 4.91644 3.85639C5.02762 3.97016 5.17842 4.03407 5.33565 4.03407H9.10025C9.25749 4.03407 9.40828 3.97016 9.51946 3.85639C9.63064 3.74263 9.6931 3.58833 9.6931 3.42744C9.6931 3.26655 9.63064 3.11225 9.51946 2.99848C9.40828 2.88471 9.25749 2.8208 9.10025 2.8208V2.8208Z" fill="white"/>
<path d="M3.26074 5.24756H2.96431C2.80708 5.24756 2.65628 5.31147 2.5451 5.42524C2.43392 5.539 2.37146 5.6933 2.37146 5.85419C2.37146 6.01508 2.43392 6.16938 2.5451 6.28314C2.65628 6.39691 2.80708 6.46082 2.96431 6.46082H3.26074C3.41797 6.46082 3.56876 6.39691 3.67995 6.28314C3.79113 6.16938 3.85359 6.01508 3.85359 5.85419C3.85359 5.6933 3.79113 5.539 3.67995 5.42524C3.56876 5.31147 3.41797 5.24756 3.26074 5.24756Z" fill="white"/>
<path d="M3.26074 2.8208H2.96431C2.80708 2.8208 2.65628 2.88471 2.5451 2.99848C2.43392 3.11225 2.37146 3.26655 2.37146 3.42744C2.37146 3.58833 2.43392 3.74263 2.5451 3.85639C2.65628 3.97016 2.80708 4.03407 2.96431 4.03407H3.26074C3.41797 4.03407 3.56876 3.97016 3.67995 3.85639C3.79113 3.74263 3.85359 3.58833 3.85359 3.42744C3.85359 3.26655 3.79113 3.11225 3.67995 2.99848C3.56876 2.88471 3.41797 2.8208 3.26074 2.8208Z" fill="white"/>
<path d="M7.59322 7.67383H5.45332C5.1259 7.67383 4.86047 7.94543 4.86047 8.28046C4.86047 8.6155 5.1259 8.8871 5.45332 8.8871H7.59322C7.92064 8.8871 8.18607 8.6155 8.18607 8.28046C8.18607 7.94543 7.92064 7.67383 7.59322 7.67383Z" fill="white"/>
<path d="M6.87794 10.1006H5.45332C5.1259 10.1006 4.86047 10.3722 4.86047 10.7072C4.86047 11.0422 5.1259 11.3138 5.45332 11.3138H6.87794C7.20537 11.3138 7.4708 11.0422 7.4708 10.7072C7.4708 10.3722 7.20537 10.1006 6.87794 10.1006Z" fill="white"/>
<path d="M12.4202 6.62744C11.5144 6.62744 10.629 6.90229 9.87584 7.41722C9.1227 7.93215 8.5357 8.66404 8.18907 9.52034C7.84244 10.3766 7.75174 11.3189 7.92846 12.2279C8.10517 13.137 8.54135 13.972 9.18184 14.6274C9.82233 15.2828 10.6384 15.7291 11.5268 15.9099C12.4151 16.0907 13.336 15.9979 14.1728 15.6432C15.0097 15.2885 15.7249 14.6879 16.2282 13.9172C16.7314 13.1466 17 12.2406 17 11.3137C17 10.0708 16.5175 8.87886 15.6586 8.00001C14.7997 7.12117 13.6349 6.62744 12.4202 6.62744V6.62744ZM12.4202 14.9535C11.7167 14.9535 11.029 14.74 10.444 14.3401C9.85904 13.9401 9.40312 13.3717 9.13389 12.7066C8.86466 12.0415 8.79422 11.3097 8.93147 10.6036C9.06872 9.89755 9.40751 9.249 9.90498 8.73996C10.4024 8.23093 11.0363 7.88427 11.7263 7.74382C12.4163 7.60338 13.1315 7.67546 13.7815 7.95095C14.4314 8.22644 14.987 8.69296 15.3779 9.29153C15.7687 9.89009 15.9773 10.5938 15.9773 11.3137C15.9773 11.7917 15.8853 12.265 15.7066 12.7066C15.5278 13.1482 15.2658 13.5494 14.9355 13.8874C14.6052 14.2254 14.213 14.4935 13.7815 14.6764C13.3499 14.8594 12.8874 14.9535 12.4202 14.9535Z" fill="white"/>
<path d="M13.8419 11.8155H12.9345V12.6824C12.9345 12.752 12.9211 12.821 12.8951 12.8853C12.869 12.9497 12.8308 13.0082 12.7827 13.0574C12.7345 13.1066 12.6774 13.1457 12.6145 13.1723C12.5516 13.1989 12.4842 13.2126 12.4161 13.2126V13.2126C12.3481 13.2126 12.2807 13.1989 12.2178 13.1722C12.1549 13.1456 12.0978 13.1065 12.0497 13.0573C12.0016 13.0081 11.9634 12.9496 11.9374 12.8853C11.9113 12.821 11.8979 12.752 11.8979 12.6824V11.8155H10.9986C10.9342 11.8155 10.8704 11.8026 10.8109 11.7774C10.7514 11.7522 10.6974 11.7152 10.6518 11.6686C10.6063 11.6221 10.5702 11.5667 10.5455 11.5058C10.5209 11.445 10.5083 11.3797 10.5083 11.3138V11.3138C10.5083 11.2479 10.5209 11.1827 10.5455 11.1218C10.5702 11.0609 10.6063 11.0056 10.6518 10.959C10.6974 10.9124 10.7514 10.8754 10.8109 10.8502C10.8704 10.825 10.9342 10.8121 10.9986 10.8121H11.8979V9.94524C11.8979 9.80462 11.9525 9.66976 12.0497 9.57033C12.1469 9.4709 12.2787 9.41504 12.4161 9.41504V9.41504C12.4842 9.415 12.5516 9.42868 12.6145 9.45531C12.6774 9.48194 12.7345 9.52099 12.7827 9.57022C12.8308 9.61946 12.869 9.67792 12.8951 9.74227C12.9211 9.80662 12.9345 9.87559 12.9345 9.94524V10.8124H13.8419C13.9063 10.8124 13.97 10.8253 14.0295 10.8505C14.089 10.8757 14.143 10.9126 14.1886 10.9592C14.2341 11.0057 14.2702 11.061 14.2949 11.1219C14.3195 11.1827 14.3322 11.2479 14.3322 11.3138V11.3138C14.3322 11.3797 14.3196 11.445 14.2949 11.5058C14.2703 11.5667 14.2342 11.6221 14.1887 11.6686C14.1431 11.7152 14.0891 11.7522 14.0296 11.7774C13.9701 11.8026 13.9063 11.8155 13.8419 11.8155V11.8155Z" fill="white"/>
</g>
<defs>
<clipPath id="clip0">
<rect width="17" height="16" fill="white"/>
</clipPath>
</defs>
</svg>
