<svg width="16" height="20" viewBox="0 0 16 20" fill="none" xmlns="http://www.w3.org/2000/svg">
<g clip-path="url(#clip0_0:1268)">
<path d="M5.56202 6.06628L2.27737 6.1293C1.64961 6.1293 0.754467 6.68385 0.815823 7.55537L0.815824 17.5032C0.816843 17.8525 0.959382 18.1873 1.21237 18.4345C1.46536 18.6817 1.80826 18.8213 2.16629 18.8227L9.27582 18.8227C9.90359 18.8227 10.8433 18.1025 10.802 17.3337L10.802 12.1655C10.8012 12.1154 10.8106 12.0656 10.8298 12.0191C10.8489 11.9726 10.8773 11.9302 10.9134 11.8945C10.9494 11.8588 10.9924 11.8304 11.0398 11.8111C11.0872 11.7917 11.1381 11.7818 11.1895 11.7818C11.4917 11.7893 11.5505 12.0338 11.5505 12.3376L11.5505 17.3337C11.5505 17.923 11.3106 18.4881 10.8835 18.9048C10.4564 19.3215 9.8772 19.5556 9.27323 19.5556L1.88728 19.5556C1.38688 19.5556 0.90698 19.3617 0.553084 19.0165C0.199189 18.6714 0.000277945 18.2032 0.000106651 17.7149L0.000105762 7.55537C0.000105632 6.06124 1.0212 5.3334 2.27737 5.3334L5.7377 5.3334C5.78908 5.33265 5.84009 5.34187 5.88778 5.36053C5.93547 5.3792 5.97886 5.40693 6.01547 5.44212C6.05207 5.4773 6.08114 5.51924 6.10098 5.56549C6.12081 5.61173 6.13102 5.66136 6.13101 5.7115C6.12326 6.00831 5.87138 6.06628 5.56202 6.06628Z" fill="white"/>
<path d="M8.63383 11.648H3.80545C3.55969 11.648 3.36046 11.8424 3.36046 12.0822C3.36046 12.322 3.55969 12.5164 3.80545 12.5164H8.63383C8.87959 12.5164 9.07882 12.322 9.07882 12.0822C9.07882 11.8424 8.87959 11.648 8.63383 11.648Z" fill="white"/>
<path d="M8.63383 13.8637H3.80545C3.55969 13.8637 3.36046 14.0581 3.36046 14.2979C3.36046 14.5377 3.55969 14.7321 3.80545 14.7321H8.63383C8.87959 14.7321 9.07882 14.5377 9.07882 14.2979C9.07882 14.0581 8.87959 13.8637 8.63383 13.8637Z" fill="white"/>
<path d="M8.63383 15.9822H3.80545C3.55969 15.9822 3.36046 16.1766 3.36046 16.4164C3.36046 16.6562 3.55969 16.8506 3.80545 16.8506H8.63383C8.87959 16.8506 9.07882 16.6562 9.07882 16.4164C9.07882 16.1766 8.87959 15.9822 8.63383 15.9822Z" fill="white"/>
<path d="M2.89128 12.0822C2.89128 11.8424 2.69205 11.648 2.44629 11.648C2.20053 11.648 2.0013 11.8424 2.0013 12.0822C2.0013 12.322 2.20053 12.5164 2.44629 12.5164C2.69205 12.5164 2.89128 12.322 2.89128 12.0822Z" fill="white"/>
<path d="M2.89128 14.2979C2.89128 14.0581 2.69205 13.8637 2.44629 13.8637C2.20053 13.8637 2.0013 14.0581 2.0013 14.2979C2.0013 14.5377 2.20053 14.7321 2.44629 14.7321C2.69205 14.7321 2.89128 14.5377 2.89128 14.2979Z" fill="white"/>
<path d="M2.89128 16.4164C2.89128 16.1766 2.69205 15.9822 2.44629 15.9822C2.20053 15.9822 2.0013 16.1766 2.0013 16.4164C2.0013 16.6562 2.20053 16.8506 2.44629 16.8506C2.69205 16.8506 2.89128 16.6562 2.89128 16.4164Z" fill="white"/>
<path d="M5.96848 10.8501V11.1973H5.66105V10.8501C5.19733 10.8072 4.84147 10.5646 4.69228 10.1991L5.20378 9.93888C5.24343 10.0347 5.30686 10.1194 5.38836 10.1854C5.46987 10.2514 5.56689 10.2966 5.67073 10.317V9.6553C5.36331 9.56519 5.14824 9.45995 5.02488 9.33329C4.95361 9.26671 4.89733 9.18638 4.85964 9.09742C4.82194 9.00845 4.80366 8.9128 4.80595 8.81655C4.80361 8.71101 4.82421 8.60617 4.8664 8.50896C4.90859 8.41175 4.9714 8.32436 5.05071 8.25255C5.21682 8.09594 5.43241 7.99887 5.66233 7.97717V7.60852H5.96975V7.97717C6.36631 8.02443 6.66663 8.23806 6.81453 8.57394L6.32176 8.83798C6.29249 8.76082 6.24502 8.69147 6.1832 8.63553C6.12138 8.57959 6.04694 8.53863 5.96589 8.51596V9.15243C6.57751 9.33707 6.87008 9.56834 6.87008 9.99181C6.86556 10.4575 6.53553 10.7959 5.96848 10.8501ZM5.66815 9.06043V8.50021C5.49377 8.53235 5.39754 8.63758 5.39754 8.77811C5.3956 8.89784 5.48666 8.99174 5.66815 9.06043ZM5.9646 10.3208C6.14608 10.2811 6.26879 10.1758 6.26879 10.0347C6.26879 9.90863 6.19065 9.83616 5.9646 9.7492V10.3208Z" fill="white"/>
</g>
<g clip-path="url(#clip1_0:1268)">
<path d="M7.55556 5.57777C8.43403 4.84606 9.54116 4.44538 10.6844 4.44538C11.8277 4.44538 12.9349 4.84606 13.8133 5.57777M5.96445 3.99999C7.2633 2.85508 8.93525 2.22339 10.6667 2.22339C12.3981 2.22339 14.07 2.85508 15.3689 3.99999M9.12445 7.15999C9.57565 6.83943 10.1154 6.66721 10.6689 6.66721C11.2224 6.66721 11.7621 6.83943 12.2133 7.15999M10.6667 8.88888H10.6711" stroke="white" stroke-linecap="round" stroke-linejoin="round"/>
</g>
<defs>
<clipPath id="clip0_0:1268">
<rect width="11.5556" height="14.2222" fill="white" transform="translate(0 5.33334)"/>
</clipPath>
<clipPath id="clip1_0:1268">
<rect width="10.6667" height="10.6667" fill="white" transform="translate(5.33333)"/>
</clipPath>
</defs>
</svg>
