<svg width="41" height="41" viewBox="0 0 41 41" fill="none" xmlns="http://www.w3.org/2000/svg">
<circle cx="20.5" cy="20.5" r="19.5" transform="rotate(-180 20.5 20.5)" stroke="white" stroke-width="2"/>
<path d="M11 21.4286L16.3077 27L29 14" stroke="white" stroke-width="2" stroke-linecap="round"/>
</svg>
