<svg width="28" height="32" viewBox="0 0 28 32" fill="none" xmlns="http://www.w3.org/2000/svg">
<path d="M0.00122954 12.5248C0.00122954 8.50741 0.864745 5.42307 2.60771 3.25237C4.34749 1.09463 6.82014 0.00280296 10.048 0.00280296C11.5743 -0.0328354 13.091 0.271711 14.4866 0.897001C15.7229 1.47369 16.8031 2.34845 17.638 3.43704C18.5111 4.61635 19.1451 5.96413 19.502 7.39614C19.9258 9.07114 20.1297 10.7947 20.1074 12.5248C20.1074 16.5455 19.228 19.6266 17.485 21.7973C15.7421 23.968 13.2567 25.0468 10.0607 25.0468C8.52486 25.0857 6.99857 24.7812 5.59018 24.1526C4.36023 23.5727 3.28323 22.7012 2.45476 21.6094C1.59443 20.4301 0.96671 19.0855 0.606646 17.6567C0.186041 15.9785 -0.0178889 14.2549 0.00122954 12.5248ZM4.72985 12.5248C4.72348 13.6523 4.82545 14.7765 5.03256 15.8813C5.20144 16.8047 5.51371 17.6924 5.95662 18.5153C6.34536 19.2184 6.89661 19.8112 7.56257 20.2421C8.26676 20.6698 9.07611 20.8836 9.89501 20.8577C11.4149 20.929 12.8616 20.1871 13.7123 18.9008C14.6205 17.5919 15.0602 15.4666 15.0602 12.5378C15.0697 11.4427 14.9741 10.3476 14.7734 9.27201C14.6109 8.34866 14.3114 7.45446 13.8812 6.62182C13.5052 5.90581 12.9572 5.29672 12.2912 4.85286C11.5679 4.40576 10.7299 4.18869 9.88227 4.22109C8.34961 4.15953 6.89661 4.92737 6.06496 6.23951C5.16958 7.58081 4.72985 9.66079 4.72985 12.5248ZM22.3188 30.425C21.3629 31.1507 19.228 32.3203 15.6815 31.9186C14.6141 31.7468 13.5594 31.4877 12.5302 31.1475C11.5137 30.8689 10.5291 30.6097 9.59231 30.3764C8.72242 30.1464 7.82704 30.0265 6.92529 30.0233C6.39953 30.02 5.87377 30.0848 5.36395 30.2241V26.1581C6.01079 26.022 6.67037 25.954 7.33315 25.9572C8.28269 25.954 9.22906 26.0674 10.1499 26.2974C11.0899 26.5275 12.0427 26.7607 13.0145 27.0232C13.9927 27.3309 14.9901 27.5739 16.0002 27.7456C18.441 28.0988 21.0315 26.9292 22.3316 26.2974V30.425H22.3188Z" fill="white"/>
<path d="M27.0232 15.2978C27.0232 16.7071 25.9016 17.8476 24.5155 17.8476C23.1294 17.8476 22.0078 16.7071 22.0078 15.2978C22.0078 13.8885 23.1294 12.748 24.5155 12.748C25.8984 12.748 27.0232 13.8917 27.0232 15.2978Z" fill="white"/>
</svg>
